<?xml version="1.0" encoding="UTF-8"?>
<svg width="512px" height="315px" viewBox="0 0 512 315" version="1.1" xmlns="http://www.w3.org/2000/svg" xmlns:xlink="http://www.w3.org/1999/xlink">
    <title>Calckey</title>
    <g id="All-Fediverse-Symbols" stroke="none" stroke-width="1" fill="none" fill-rule="evenodd">
        <g id="Calckey" transform="translate(0.000000, -98.000000)" fill="#000000" fill-rule="nonzero">
            <g transform="translate(0.000000, 98.000000)" id="Path">
                <path d="M45.9724288,45.9230062 C15.3196285,76.9543497 0,114.274261 0,157.884995 C19.680915,158.078679 79.0409767,157.988809 98.7807931,157.897397 C98.8078795,157.892312 98.8304516,157.890576 98.8586666,157.884995 C99.2851649,125.841258 123.804132,102.252927 158.054912,98.7523888 C174.009943,98.7523888 187.654728,104.624838 198.987009,116.372329 C208.636547,126.009239 220.396568,130.827693 234.263687,130.827693 C248.098077,130.827693 259.855841,126.009126 269.516665,116.372329 C279.16609,106.725612 284,94.9790225 284,81.1335755 C284,67.307294 279.166428,55.5723166 269.516665,45.9241336 C238.448539,15.3087961 201.297255,0 158.054912,0 C114.397244,0 77.0416827,15.3076687 45.9724288,45.9230062 Z"></path>
                <path d="M0,157.460591 C0,201.222901 15.3307318,237.778184 45.9831666,268.917382 C77.0509215,299.639127 114.401523,315 158.057542,315 C201.29937,315 238.455854,299.639127 269.523609,268.917382 C279.172919,259.236004 284,247.459901 284,233.585564 C284,219.690864 279.172467,207.903787 269.523609,198.224332 C259.863352,188.553929 248.105277,183.718727 234.271052,183.718727 C220.404098,183.718727 208.644217,188.554042 198.994794,198.224332 C187.662648,210.012541 174.012383,215.898726 158.057542,215.898726 C123.807171,212.385908 99.276194,190.293877 98.8495879,158.138767 C98.8225018,158.138892 98.876674,157.460455 98.8495879,157.460591 C96.1577956,153.079575 0,113.698281 0,157.460591 Z"></path>
                <path d="M393.457455,78 C361.02647,78 333.159136,89.5134269 309.857707,112.535994 C302.620625,119.791577 299,128.617271 299,139.015105 C299,149.427943 302.620512,158.263 309.857707,165.517906 C317.103124,172.765254 325.923969,176.387405 336.299181,176.387405 C346.69996,176.387405 355.522382,172.765254 362.758675,165.517906 C371.258083,156.683865 381.490822,152.269326 393.456329,152.269326 C405.72593,152.269326 416.275714,156.521755 425.09442,165.035073 C433.601823,173.869227 437.857327,184.439776 437.857327,196.737355 C437.857327,208.71455 433.437613,218.964601 424.619133,227.485253 C420.209893,232.215438 414.857063,235.36897 408.570892,236.947654 C406.981047,237.26048 405.727282,237.102093 404.785043,236.476666 C404.153768,235.522732 404.475206,234.578387 405.737418,233.632576 L415.178388,223.699187 C422.42358,216.443716 426.048034,207.770205 426.048034,197.684859 C426.048034,187.279579 422.901569,178.922053 416.607063,172.612507 C410.312558,166.302736 401.490248,163.150106 390.147569,163.150106 C382.279437,163.150106 374.413557,167.087452 366.545425,174.967109 L311.751194,229.368189 C304.506116,236.630992 300.887518,245.467516 300.887518,255.86535 C300.887518,266.278075 304.506003,275.103092 311.751194,282.350101 C333.790074,304.11482 361.026695,315 393.457681,315 C426.200643,315 454.214392,303.331909 477.515822,279.994597 C500.505274,256.970902 512,229.21815 512,196.735212 C512,163.938658 500.505274,135.871162 477.515822,112.533851 C454.214392,89.5101554 426.200643,78 393.457681,78 L393.457455,78 Z"></path>
            </g>
        </g>
    </g>
</svg>